<svg xmlns="http://www.w3.org/2000/svg" xmlns:xlink="http://www.w3.org/1999/xlink" x="0" y="0" width="34" height="34" viewBox="0 0 34 34" xml:space="preserve" class="svg-icon svg-rarr"
	>
	<polygon class="icon-fill" fill="#6D6C6C" points="10,34 7.1,31.1 21.2,17 7.1,2.9 9.9,0 26.9,17 "/>
</svg>
